{
  "formatVersion": 1,
  "database": {
    "version": 1,
    "identityHash": "4a7847ad52125ecdbbea487645c755ac",
    "entities": [
      {
        "tableName": "Department",
        "createSql": "CREATE TABLE IF NOT EXISTS `${TABLE_NAME}` (`departmentId` INTEGER NOT NULL, `departmentName` TEXT NOT NULL, `order` INTEGER NOT NULL, `subDepartments` TEXT NOT NULL, `parentDepartment` INTEGER, PRIMARY KEY(`departmentId`))",
        "fields": [
          {
            "fieldPath": "departmentId",
            "columnName": "departmentId",
            "affinity": "INTEGER",
            "notNull": true
          },
          {
            "fieldPath": "departmentName",
            "columnName": "departmentName",
            "affinity": "TEXT",
            "notNull": true
          },
          {
            "fieldPath": "order",
            "columnName": "order",
            "affinity": "INTEGER",
            "notNull": true
          },
          {
            "fieldPath": "subDepartments",
            "columnName": "subDepartments",
            "affinity": "TEXT",
            "notNull": true
          },
          {
            "fieldPath": "parentDepartment",
            "columnName": "parentDepartment",
            "affinity": "INTEGER",
            "notNull": false
          }
        ],
        "primaryKey": {
          "columnNames": [
            "departmentId"
          ],
          "autoGenerate": false
        },
        "indices": [],
        "foreignKeys": []
      },
      {
        "tableName": "DepartmentTask",
        "createSql": "CREATE TABLE IF NOT EXISTS `${TABLE_NAME}` (`taskId` INTEGER NOT NULL, `taskName` TEXT NOT NULL, `taskJobTitle` TEXT NOT NULL, PRIMARY KEY(`taskId`))",
        "fields": [
          {
            "fieldPath": "taskId",
            "columnName": "taskId",
            "affinity": "INTEGER",
            "notNull": true
          },
          {
            "fieldPath": "taskName",
            "columnName": "taskName",
            "affinity": "TEXT",
            "notNull": true
          },
          {
            "fieldPath": "taskJobTitle",
            "columnName": "taskJobTitle",
            "affinity": "TEXT",
            "notNull": true
          }
        ],
        "primaryKey": {
          "columnNames": [
            "taskId"
          ],
          "autoGenerate": false
        },
        "indices": [],
        "foreignKeys": []
      },
      {
        "tableName": "Employee",
        "createSql": "CREATE TABLE IF NOT EXISTS `${TABLE_NAME}` (`employeeId` INTEGER NOT NULL, `employeeName` TEXT NOT NULL, `employeePhone` TEXT NOT NULL, `employeeMail` TEXT NOT NULL, `room` INTEGER NOT NULL, PRIMARY KEY(`employeeId`))",
        "fields": [
          {
            "fieldPath": "employeeId",
            "columnName": "employeeId",
            "affinity": "INTEGER",
            "notNull": true
          },
          {
            "fieldPath": "employeeName",
            "columnName": "employeeName",
            "affinity": "TEXT",
            "notNull": true
          },
          {
            "fieldPath": "employeePhone",
            "columnName": "employeePhone",
            "affinity": "TEXT",
            "notNull": true
          },
          {
            "fieldPath": "employeeMail",
            "columnName": "employeeMail",
            "affinity": "TEXT",
            "notNull": true
          },
          {
            "fieldPath": "room",
            "columnName": "room",
            "affinity": "INTEGER",
            "notNull": true
          }
        ],
        "primaryKey": {
          "columnNames": [
            "employeeId"
          ],
          "autoGenerate": false
        },
        "indices": [],
        "foreignKeys": []
      },
      {
        "tableName": "Room",
        "createSql": "CREATE TABLE IF NOT EXISTS `${TABLE_NAME}` (`roomId` INTEGER NOT NULL, `roomNumber` TEXT NOT NULL, `router` INTEGER, PRIMARY KEY(`roomId`))",
        "fields": [
          {
            "fieldPath": "roomId",
            "columnName": "roomId",
            "affinity": "INTEGER",
            "notNull": true
          },
          {
            "fieldPath": "roomNumber",
            "columnName": "roomNumber",
            "affinity": "TEXT",
            "notNull": true
          },
          {
            "fieldPath": "router",
            "columnName": "router",
            "affinity": "INTEGER",
            "notNull": false
          }
        ],
        "primaryKey": {
          "columnNames": [
            "roomId"
          ],
          "autoGenerate": false
        },
        "indices": [],
        "foreignKeys": []
      },
      {
        "tableName": "Router",
        "createSql": "CREATE TABLE IF NOT EXISTS `${TABLE_NAME}` (`routeId` INTEGER NOT NULL, `routeName` TEXT NOT NULL, `routeDescription` TEXT NOT NULL, PRIMARY KEY(`routeId`))",
        "fields": [
          {
            "fieldPath": "routeId",
            "columnName": "routeId",
            "affinity": "INTEGER",
            "notNull": true
          },
          {
            "fieldPath": "routeName",
            "columnName": "routeName",
            "affinity": "TEXT",
            "notNull": true
          },
          {
            "fieldPath": "routeDescription",
            "columnName": "routeDescription",
            "affinity": "TEXT",
            "notNull": true
          }
        ],
        "primaryKey": {
          "columnNames": [
            "routeId"
          ],
          "autoGenerate": false
        },
        "indices": [],
        "foreignKeys": []
      }
    ],
    "views": [],
    "setupQueries": [
      "CREATE TABLE IF NOT EXISTS room_master_table (id INTEGER PRIMARY KEY,identity_hash TEXT)",
      "INSERT OR REPLACE INTO room_master_table (id,identity_hash) VALUES(42, \"4a7847ad52125ecdbbea487645c755ac\")"
    ]
  }
}